Visualización de datos del Covid-19
…
2. Seleccion de columnas y primeras transformaciones

#Solo nos quedamos con las columnas 'ObservationDate', 'Country/Region', 'Confirmed', 'Deaths' y 'Recovery'
datacovid19 <- covid_19_data %>%
                 select(-c(1,3,5))

covid_19_data %>% filter( `Country/Region`=="Spain")

## # A tibble: 5,898 x 8
##      SNo ObservationDate `Province/State` `Country/Region` `Last Update`      
##    <dbl> <chr>           <chr>            <chr>            <chr>              
##  1   552 02/01/2020      <NA>             Spain            2/1/2020 2:13      
##  2   619 02/02/2020      <NA>             Spain            2020-02-01T23:43:02
##  3   688 02/03/2020      <NA>             Spain            2020-02-01T23:43:02
##  4   758 02/04/2020      <NA>             Spain            2020-02-01T23:43:02
##  5   828 02/05/2020      <NA>             Spain            2020-02-01T23:43:02
##  6   899 02/06/2020      <NA>             Spain            2020-02-01T23:43:02
##  7   971 02/07/2020      <NA>             Spain            2020-02-01T23:43:02
##  8  1043 02/08/2020      <NA>             Spain            2020-02-01T23:43:02
##  9  1106 02/09/2020      <NA>             Spain            2020-02-09T20:33:03
## 10  1178 02/10/2020      <NA>             Spain            2020-02-09T20:33:03
## # ... with 5,888 more rows, and 3 more variables: Confirmed <dbl>,
## #   Deaths <dbl>, Recovered <dbl>

#Transformo los valores de la columna 'Pais-Region': "Mainland China" lo transformo a "China", y "occupied Palestinian territory" a "Palestina".
ind_c <- which(datacovid19$`Country/Region`=="Mainland China")
ind_p <- which(datacovid19$`Country/Region`=="occupied Palestinian territory")

datacovid19$`Country/Region`[ind_c] <- "China"
datacovid19$`Country/Region`[ind_p] <- "Palestina"

datacovid19

## # A tibble: 236,017 x 5
##    ObservationDate `Country/Region` Confirmed Deaths Recovered
##    <chr>           <chr>                <dbl>  <dbl>     <dbl>
##  1 01/22/2020      China                    1      0         0
##  2 01/22/2020      China                   14      0         0
##  3 01/22/2020      China                    6      0         0
##  4 01/22/2020      China                    1      0         0
##  5 01/22/2020      China                    0      0         0
##  6 01/22/2020      China                   26      0         0
##  7 01/22/2020      China                    2      0         0
##  8 01/22/2020      China                    1      0         0
##  9 01/22/2020      China                    4      0         0
## 10 01/22/2020      China                    1      0         0
## # ... with 236,007 more rows
…
#Convertimos la columna 'ObservationDate' a tipo Date
datacovid19_por_dia_Spain <- convertir_a_fecha(datacovid19_por_dia_Spain)

#Agrupamos y ordenamos por Fecha y eliminamos columnas que no nos interesan
datacovid19_por_dia_Spain <- datacovid19_por_dia_Spain %>%
                             group_by(ObservationDate) %>%
                             arrange(ObservationDate) %>%
                             select(-c(1,6,7,8))

#Renombramos nombre de columnas para mayor facilidad
names(datacovid19_por_dia_Spain)[1:4] <- c("Date","Confirmados","Fallecimientos","Recuperados")

datacovid19_por_dia_Spain

## # A tibble: 393 x 4
## # Groups:   Date [393]
##    Date       Confirmados Fallecimientos Recuperados
##    <date>           <dbl>          <dbl>       <dbl>
##  1 2020-02-01           1              0           0
##  2 2020-02-02           1              0           0
##  3 2020-02-03           1              0           0
##  4 2020-02-04           1              0           0
##  5 2020-02-05           1              0           0
##  6 2020-02-06           1              0           0
##  7 2020-02-07           1              0           0
##  8 2020-02-08           1              0           0
##  9 2020-02-09           2              0           0
## 10 2020-02-10           2              0           0
## # ... with 383 more rows
…
